[gd_scene load_steps=4 format=2]

[ext_resource path="res://assets/Pile of Beans (yellow 2).png" type="Texture" id=1]
[ext_resource path="res://Beans/Beanoid.gd" type="Script" id=2]
[ext_resource path="res://BeanoidExplosion.tscn" type="PackedScene" id=3]

[node name="Beanoid" type="RigidBody2D" groups=[
"Beanoids",
]]
mass = 100.0
gravity_scale = 0.0
contacts_reported = 8
contact_monitor = true
linear_damp = 0.0
angular_damp = 0.0
script = ExtResource( 2 )

[node name="Sprite" type="Sprite" parent="."]
scale = Vector2( 0.1, 0.1 )
texture = ExtResource( 1 )

[node name="CollisionPolygon2D" type="CollisionPolygon2D" parent="."]
scale = Vector2( 0.1, 0.1 )
polygon = PoolVector2Array( 139, -252.5, 139, -250.6, 169, -240.7, 169, -239, 192, -221, 192, -218.6, 206, -201.6, 206, -199.2, 218, -177.3, 218, -173.8, 222, -155.8, 222, -131.4, 219.9, -72.5, 218.1, -72.5, 194.1, -4.5, 192.9, -4.5, 155.9, 70.5, 154.5, 70.5, 91.5, 157.5, 90.2, 157.5, 39.2, 208.5, 36.9, 208.5, -24.2, 245.5, -27.9, 245.5, -64.7, 253.5, -114.2, 253.5, -126, 252.2, -126, 250.4, -172, 229.4, -172, 227.9, -208, 198.9, -208, 196.1, -221, 152.9, -221, 145.5, -223.1, 90.5, -221.6, 90.5, -216.5, 61.5, -214.5, 61.5, -203, 46.5, -203, 44, -196.2, 22.5, -194.1, 22.5, -184, 13.2, -184, 11.8, -165.9, -27.5, -164.4, -27.5, -110, -92.6, -110, -93.7, -107.5, -108.5, -105.2, -108.5, -23.3, -191.5, -21, -191.5, 67, -251.1, 67, -253.5 )

[node name="AudioStreamPlayer2D" parent="." instance=ExtResource( 3 )]
[connection signal="body_entered" from="." to="." method="_on_Beanoid_body_entered"]
