[gd_scene load_steps=4 format=2]

[ext_resource path="res://assets/Pile of Beans (navy 1).png" type="Texture" id=1]
[ext_resource path="res://Beans/Beanoid.gd" type="Script" id=2]
[ext_resource path="res://BeanoidExplosion.tscn" type="PackedScene" id=3]

[node name="Beanoid" type="RigidBody2D" groups=[
"Beanoid",
]]
mass = 100.0
gravity_scale = 0.0
contacts_reported = 8
contact_monitor = true
linear_damp = 0.0
angular_damp = 0.0
script = ExtResource( 2 )
__meta__ = {
"_editor_description_": ""
}

[node name="Sprite" type="Sprite" parent="."]
scale = Vector2( 0.1, 0.1 )
texture = ExtResource( 1 )
__meta__ = {
"_editor_description_": ""
}

[node name="CollisionPolygon2D" type="CollisionPolygon2D" parent="."]
scale = Vector2( 0.1, 0.1 )
polygon = PoolVector2Array( 26.5, -132.9, 26.5, -131.4, 65.5, -123.4, 65.5, -122.2, 93.5, -113.2, 93.5, -111.7, 132.5, -90.8, 132.5, -89.3, 165.5, -55.2, 165.5, -53, 184.5, -24.9, 184.5, -21.7, 198.5, 11.4, 198.5, 16.5, 206.1, 59, 203.7, 59, 190.7, 100, 188.6, 100, 159.5, 123, 155.9, 123, 125, 134, 33.5, 134, 33.5, 132.6, -40.5, 122.6, -40.5, 121.4, -54.5, 118.4, -54.5, 116.6, -64.5, 110, -67.6, 110, -81.5, 108.7, -81.5, 106.4, -93.7, 96, -96.6, 96, -109.5, 94.7, -109.5, 92.5, -159.5, 56.5, -159.5, 55.3, -187.5, 26.2, -187.5, 23.8, -202.5, -5.3, -202.5, -10, -205.7, -59, -203.6, -59, -195.6, -80, -193.6, -80, -164.6, -106, -162.2, -106, -143.2, -115, -137.9, -115, -88.9, -128, -82.7, -128, -17.5, -132.8, -17.5, -134.1 )
__meta__ = {
"_editor_description_": ""
}

[node name="AudioStreamPlayer2D" parent="." instance=ExtResource( 3 )]
[connection signal="body_entered" from="." to="." method="_on_Beanoid_body_entered"]
