[gd_scene load_steps=4 format=2]

[ext_resource path="res://assets/Pile of Beans (speckled 1).png" type="Texture" id=1]
[ext_resource path="res://Beans/Beanoid.gd" type="Script" id=2]
[ext_resource path="res://BeanoidExplosion.tscn" type="PackedScene" id=3]

[node name="Beanoid" type="RigidBody2D" groups=[
"Beanoid",
]]
mass = 100.0
gravity_scale = 0.0
contacts_reported = 8
contact_monitor = true
linear_damp = 0.0
angular_damp = 0.0
script = ExtResource( 2 )
__meta__ = {
"_editor_description_": ""
}

[node name="Sprite" type="Sprite" parent="."]
scale = Vector2( 0.1, 0.1 )
texture = ExtResource( 1 )
__meta__ = {
"_editor_description_": ""
}

[node name="CollisionPolygon2D" type="CollisionPolygon2D" parent="."]
scale = Vector2( 0.1, 0.1 )
polygon = PoolVector2Array( 33, -242.2, 33, -240.4, 48, -233.4, 48, -231.7, 63, -215.7, 63, -213.3, 72, -199.4, 72, -194.1, 90.3, -133.5, 90.9, -133.5, 100, -115.2, 100, -110.5, 104.4, -74.5, 102.1, -74.5, 100.7, -70.4, 107.6, -19.5, 131, 33.9, 131, 46.5, 139, 118.3, 139, 123.3, 135, 130.3, 135, 131.5, 137.2, 162.5, 135.4, 162.5, 128.4, 194.5, 126.5, 194.5, 100.5, 227.5, 97, 227.5, 86.1, 236.5, 81.6, 236.5, 65.5, 242.5, 57.2, 242.5, -25, 246.7, -25, 245.1, -61, 240.1, -61, 238.1, -96, 214.1, -96, 210.4, -106, 196.5, -106, 192.9, -116, 154.9, -116, 151.5, -120.3, 105.5, -118.1, 105.5, -116.7, 101.9, -123, 89.2, -123, 87.3, -120.5, 70.5, -135, -4.2, -135, -17.5, -141.2, -111.5, -139.4, -111.5, -128.4, -164.5, -126.5, -164.5, -96.5, -206.5, -94, -206.5, -58, -234.5, -54.6, -234.5, -33.6, -242.5, -27.2, -242.5, -4, -244.3, -4, -245.8 )
__meta__ = {
"_editor_description_": ""
}

[node name="AudioStreamPlayer2D" parent="." instance=ExtResource( 3 )]
[connection signal="body_entered" from="." to="." method="_on_Beanoid_body_entered"]
